what,kind,bundleId,bundleVersion,description,time
deactivated,workbench,org.eclipse.ui.workbench,3.7.0.I20110519-0100,"",1333657242690
activated,workbench,org.eclipse.ui.workbench,3.7.0.I20110519-0100,"",1333657447153
activated,editor,org.eclipse.jdt.ui,3.7.1.r371_v20110824-0800,"org.eclipse.jdt.ui.ClassFileEditor",1333657449829
deactivated,workbench,org.eclipse.ui.workbench,3.7.0.I20110519-0100,"",1333657450890
activated,workbench,org.eclipse.ui.workbench,3.7.0.I20110519-0100,"",1333657452304
activated,view,org.eclipse.jdt.ui,3.7.1.r371_v20110824-0800,"org.eclipse.jdt.ui.JavadocView",1333657453023
closed,editor,org.eclipse.jdt.ui,3.7.1.r371_v20110824-0800,"org.eclipse.jdt.ui.CompilationUnitEditor",1333657453024
closed,editor,org.eclipse.jdt.ui,3.7.1.r371_v20110824-0800,"org.eclipse.jdt.ui.ClassFileEditor",1333657453208
closed,editor,org.eclipse.jdt.ui,3.7.1.r371_v20110824-0800,"org.eclipse.jdt.ui.ClassFileEditor",1333657453355
closed,editor,org.eclipse.jdt.ui,3.7.1.r371_v20110824-0800,"org.eclipse.jdt.ui.ClassFileEditor",1333657453366
closed,editor,org.eclipse.jdt.ui,3.7.1.r371_v20110824-0800,"org.eclipse.jdt.ui.ClassFileEditor",1333657453450
closed,editor,org.eclipse.jdt.ui,3.7.1.r371_v20110824-0800,"org.eclipse.jdt.ui.ClassFileEditor",1333657453478
closed,editor,org.eclipse.jdt.ui,3.7.1.r371_v20110824-0800,"org.eclipse.jdt.ui.ClassFileEditor",1333657453486
closed,editor,org.eclipse.jdt.ui,3.7.1.r371_v20110824-0800,"org.eclipse.jdt.ui.ClassFileEditor",1333657453501
closed,editor,org.eclipse.jdt.ui,3.7.1.r371_v20110824-0800,"org.eclipse.jdt.ui.ClassFileEditor",1333657453519
closed,editor,org.eclipse.jdt.ui,3.7.1.r371_v20110824-0800,"org.eclipse.jdt.ui.ClassFileEditor",1333657453551
deactivated,workbench,org.eclipse.ui.workbench,3.7.0.I20110519-0100,"",1333657456172
activated,workbench,org.eclipse.ui.workbench,3.7.0.I20110519-0100,"",1333657459324
deactivated,workbench,org.eclipse.ui.workbench,3.7.0.I20110519-0100,"",1333657462505
activated,workbench,org.eclipse.ui.workbench,3.7.0.I20110519-0100,"",1333657464636
deactivated,workbench,org.eclipse.ui.workbench,3.7.0.I20110519-0100,"",1333657464667
activated,workbench,org.eclipse.ui.workbench,3.7.0.I20110519-0100,"",1333657465470
deactivated,workbench,org.eclipse.ui.workbench,3.7.0.I20110519-0100,"",1333657509179
activated,workbench,org.eclipse.ui.workbench,3.7.0.I20110519-0100,"",1333658069621
activated,view,org.eclipse.jdt.ui,3.7.1.r371_v20110824-0800,"org.eclipse.jdt.ui.PackageExplorer",1333658072162
executed,command,org.eclipse.ui,3.7.0.I20110602-0100,"org.eclipse.ui.navigate.collapseAll",1333658072573
deactivated,workbench,org.eclipse.ui.workbench,3.7.0.I20110519-0100,"",1333658073813
activated,workbench,org.eclipse.ui.workbench,3.7.0.I20110519-0100,"",1333723785083
deactivated,workbench,org.eclipse.ui.workbench,3.7.0.I20110519-0100,"",1333723785729
activated,workbench,org.eclipse.ui.workbench,3.7.0.I20110519-0100,"",1333724447111
deactivated,workbench,org.eclipse.ui.workbench,3.7.0.I20110519-0100,"",1333724451021
activated,workbench,org.eclipse.ui.workbench,3.7.0.I20110519-0100,"",1333724751797
deactivated,workbench,org.eclipse.ui.workbench,3.7.0.I20110519-0100,"",1333724756011
activated,workbench,org.eclipse.ui.workbench,3.7.0.I20110519-0100,"",1333891518073
deactivated,workbench,org.eclipse.ui.workbench,3.7.0.I20110519-0100,"",1333891520067
activated,workbench,org.eclipse.ui.workbench,3.7.0.I20110519-0100,"",1333891698039
deactivated,workbench,org.eclipse.ui.workbench,3.7.0.I20110519-0100,"",1333891711604
activated,workbench,org.eclipse.ui.workbench,3.7.0.I20110519-0100,"",1333891711652
deactivated,workbench,org.eclipse.ui.workbench,3.7.0.I20110519-0100,"",1333891717655
activated,workbench,org.eclipse.ui.workbench,3.7.0.I20110519-0100,"",1333891893320
closed,workbench,org.eclipse.ui.workbench,3.7.0.I20110519-0100,"",1333891897241
stopped,bundle,org.eclipse.jst.ws.axis.creation.ui,1.0.700.v201104070312,"org.eclipse.jst.ws.axis.creation.ui",1333891911114
stopped,bundle,org.eclipse.jst.ws.axis.consumption.ui,1.0.505.v201004211805,"org.eclipse.jst.ws.axis.consumption.ui",1333891911258
stopped,bundle,org.eclipse.jst.ws.axis.consumption.core,1.0.407.v201104071820,"org.eclipse.jst.ws.axis.consumption.core",1333891911258
stopped,bundle,org.eclipse.jst.ws.axis2.creation.ui,1.0.104.v201004211805,"org.eclipse.jst.ws.axis2.creation.ui",1333891911279
stopped,bundle,org.eclipse.jst.ws.axis2.consumption.ui,1.0.103.v201004211805,"org.eclipse.jst.ws.axis2.consumption.ui",1333891911301
stopped,bundle,org.eclipse.jst.ws.axis2.creation.core,1.0.106.v201004211805,"org.eclipse.jst.ws.axis2.creation.core",1333891911302
stopped,bundle,org.eclipse.jst.ws.axis2.consumption.core,1.0.105.v201004211805,"org.eclipse.jst.ws.axis2.consumption.core",1333891911302
stopped,bundle,org.eclipse.jst.ws.axis2.ui,1.0.303.v201003110431,"org.eclipse.jst.ws.axis2.ui",1333891911302
stopped,bundle,org.eclipse.jst.ws.axis2.core,1.0.204.v201004211805,"org.eclipse.jst.ws.axis2.core",1333891911302
stopped,bundle,org.eclipse.jst.ws.cxf.creation.ui,1.0.100.v201104022153,"org.eclipse.jst.ws.cxf.creation.ui",1333891911302
stopped,bundle,org.eclipse.jst.ws.creation.ui,1.0.609.v201103082016,"org.eclipse.jst.ws.creation.ui",1333891911302
stopped,bundle,org.eclipse.jst.ws.cxf.consumption.ui,1.0.0.v201003222311,"org.eclipse.jst.ws.cxf.consumption.ui",1333891911302
stopped,bundle,org.eclipse.jst.ws.consumption.ui,1.1.401.v201108240414,"org.eclipse.jst.ws.consumption.ui",1333891911302
stopped,bundle,org.eclipse.jst.ws.consumption,1.0.601.v201108230319,"org.eclipse.jst.ws.consumption",1333891911302
stopped,bundle,org.eclipse.jst.ws.cxf.consumption.core,1.0.0.v201003222311,"org.eclipse.jst.ws.cxf.consumption.core",1333891911302
stopped,bundle,org.eclipse.jst.ws.cxf.creation.core,1.0.100.v201104022153,"org.eclipse.jst.ws.cxf.creation.core",1333891911302
stopped,bundle,org.eclipse.jst.ws.cxf.ui,1.0.0.v201004171919,"org.eclipse.jst.ws.cxf.ui",1333891911302
stopped,bundle,org.eclipse.jst.ws.cxf.core,1.0.100.v201104022153,"org.eclipse.jst.ws.cxf.core",1333891911302
stopped,bundle,org.eclipse.jst.ws.uddiregistry,1.0.500.v201004211805,"org.eclipse.jst.ws.uddiregistry",1333891911302
stopped,bundle,org.eclipse.jst.ws.ui,1.0.403.v201004211805,"org.eclipse.jst.ws.ui",1333891911379
stopped,bundle,org.eclipse.jst.ws,1.0.509.v201108250610,"org.eclipse.jst.ws",1333891911379
stopped,bundle,org.eclipse.wst.ws.explorer,1.0.607.v201103082002,"org.eclipse.wst.ws.explorer",1333891911379
stopped,bundle,org.eclipse.wst.wsdl.ui,1.2.403.v201108240515,"org.eclipse.wst.wsdl.ui",1333891911379
stopped,bundle,org.eclipse.wst.ws.ui,1.1.200.v201004211805,"org.eclipse.wst.ws.ui",1333891911379
stopped,bundle,org.eclipse.wst.wsi.ui,1.0.502.v201104071820,"org.eclipse.wst.wsi.ui",1333891911379
stopped,bundle,org.eclipse.wst.wsi,1.0.401.v201104071820,"org.eclipse.wst.wsi",1333891911380
stopped,bundle,org.eclipse.wst.ws,1.1.203.v201004211805,"org.eclipse.wst.ws",1333891911380
stopped,bundle,org.eclipse.jst.j2ee.webservice.ui,1.1.500.v201105122000,"org.eclipse.jst.j2ee.webservice.ui",1333891911385
stopped,bundle,org.eclipse.jst.j2ee.webservice,1.1.400.v201004110600,"org.eclipse.jst.j2ee.webservice",1333891911386
stopped,bundle,org.eclipse.wst.ws.parser,1.0.403.v201004211805,"org.eclipse.wst.ws.parser",1333891911386
stopped,bundle,org.eclipse.birt.report.debug.ui,3.7.1.v20110905,"org.eclipse.birt.report.debug.ui",1333891911412
stopped,bundle,org.eclipse.birt.report.designer.ui.preview.web,3.7.1.v20110905,"org.eclipse.birt.report.designer.ui.preview.web",1333891911412
stopped,bundle,org.eclipse.birt.report.viewer,3.7.1.v20110905,"org.eclipse.birt.report.viewer",1333891911425
stopped,bundle,com.springsource.sts.vmware.ui,2.8.1.201111221000-RELEASE,"com.springsource.sts.vmware.ui",1333891911450
stopped,bundle,org.eclipse.jpt.dbws.eclipselink.ui,1.0.0.v201104110000,"org.eclipse.jpt.dbws.eclipselink.ui",1333891911482
stopped,bundle,com.springsource.sts.ide.metadata,2.8.1.201111221000-RELEASE,"com.springsource.sts.ide.metadata",1333891911482
stopped,bundle,com.springsource.sts.bestpractices,2.8.1.201111221000-RELEASE,"com.springsource.sts.bestpractices",1333891911482
stopped,bundle,com.springsource.sts.config.ui,2.8.1.201111221000-RELEASE,"com.springsource.sts.config.ui",1333891911482
stopped,bundle,com.springsource.sts.wizard,2.8.1.201111221000-RELEASE,"com.springsource.sts.wizard",1333891911482
stopped,bundle,com.springsource.sts.quickfix,2.8.1.201111221000-RELEASE,"com.springsource.sts.quickfix",1333891911482
stopped,bundle,com.springsource.sts.roo.ui,2.8.1.201111221000-RELEASE,"com.springsource.sts.roo.ui",1333891911482
stopped,bundle,com.springsource.sts.roo.core,2.8.1.201111221000-RELEASE,"com.springsource.sts.roo.core",1333891911482
stopped,bundle,com.springsource.sts.config.flow,2.8.1.201111221000-RELEASE,"com.springsource.sts.config.flow",1333891911482
stopped,bundle,com.springsource.sts.ide.help,2.8.1.201111221000-RELEASE,"com.springsource.sts.ide.help",1333891911482
stopped,bundle,com.springsource.sts.maven,2.8.1.201111221000-RELEASE,"com.springsource.sts.maven",1333891911482
stopped,bundle,com.springsource.sts.maven.legacy,2.8.1.201111221000-RELEASE,"com.springsource.sts.maven.legacy",1333891911482
stopped,bundle,com.springsource.sts.server.insight.ui,2.8.1.201111221000-RELEASE,"com.springsource.sts.server.insight.ui",1333891911504
stopped,bundle,com.springsource.sts.server.tc.vmware.ui,2.8.1.201111221000-RELEASE,"com.springsource.sts.server.tc.vmware.ui",1333891911504
stopped,bundle,com.springsource.sts.server.tc.ui,2.8.1.201111221000-RELEASE,"com.springsource.sts.server.tc.ui",1333891911504
stopped,bundle,com.springsource.sts.server.tc.vmware.core,2.8.1.201111221000-RELEASE,"com.springsource.sts.server.tc.vmware.core",1333891911504
stopped,bundle,com.springsource.sts.ide.configurator,2.8.1.201111221000-RELEASE,"com.springsource.sts.ide.configurator",1333891911590
stopped,bundle,com.springsource.sts.ide.ui,2.8.1.201111221000-RELEASE,"com.springsource.sts.ide.ui",1333891911590
stopped,bundle,com.springsource.sts.config.core,2.8.1.201111221000-RELEASE,"com.springsource.sts.config.core",1333891911591
stopped,bundle,org.springframework.ide.eclipse.batch,2.8.1.201111220115-RELEASE,"org.springframework.ide.eclipse.batch",1333891911591
stopped,bundle,org.springframework.ide.eclipse.ajdt.ui.visualiser,2.8.1.201111220115-RELEASE,"org.springframework.ide.eclipse.ajdt.ui.visualiser",1333891911591
stopped,bundle,org.springframework.ide.eclipse.ajdt.ui.xref,2.8.1.201111220115-RELEASE,"org.springframework.ide.eclipse.ajdt.ui.xref",1333891911591
stopped,bundle,org.springframework.ide.eclipse.aop.mylyn,2.8.1.201111220115-RELEASE,"org.springframework.ide.eclipse.aop.mylyn",1333891911591
stopped,bundle,org.springframework.ide.eclipse.aop.ui.matcher,2.8.1.201111220115-RELEASE,"org.springframework.ide.eclipse.aop.ui.matcher",1333891911591
stopped,bundle,org.springframework.ide.eclipse.aop.ui,2.8.1.201111220115-RELEASE,"org.springframework.ide.eclipse.aop.ui",1333891911592
stopped,bundle,org.springframework.ide.eclipse.security,2.8.1.201111220115-RELEASE,"org.springframework.ide.eclipse.security",1333891911617
stopped,bundle,org.springframework.ide.eclipse.aop.core,2.8.1.201111220115-RELEASE,"org.springframework.ide.eclipse.aop.core",1333891911634
stopped,bundle,org.springframework.ide.eclipse.beans.ui.autowire,2.8.1.201111220115-RELEASE,"org.springframework.ide.eclipse.beans.ui.autowire",1333891911635
stopped,bundle,org.springframework.ide.eclipse.beans.core.autowire,2.8.1.201111220115-RELEASE,"org.springframework.ide.eclipse.beans.core.autowire",1333891911635
stopped,bundle,org.springframework.ide.eclipse.beans.mylyn,2.8.1.201111220115-RELEASE,"org.springframework.ide.eclipse.beans.mylyn",1333891911635
stopped,bundle,com.springsource.sts.frameworks.ui,2.8.1.201111221000-RELEASE,"com.springsource.sts.frameworks.ui",1333891911636
stopped,bundle,org.springframework.ide.eclipse.beans.ui.refactoring,2.8.1.201111220115-RELEASE,"org.springframework.ide.eclipse.beans.ui.refactoring",1333891911638
stopped,bundle,org.springframework.ide.eclipse.integration,2.8.1.201111220115-RELEASE,"org.springframework.ide.eclipse.integration",1333891911638
stopped,bundle,org.springframework.ide.eclipse.mylyn,2.8.1.201111220115-RELEASE,"org.springframework.ide.eclipse.mylyn",1333891911638
stopped,bundle,org.springframework.ide.eclipse.osgi,2.8.1.201111220115-RELEASE,"org.springframework.ide.eclipse.osgi",1333891911638
stopped,bundle,org.springframework.ide.eclipse.webflow.mylyn,2.8.1.201111220115-RELEASE,"org.springframework.ide.eclipse.webflow.mylyn",1333891911638
stopped,bundle,org.springframework.ide.eclipse.webflow.ui,2.8.1.201111220115-RELEASE,"org.springframework.ide.eclipse.webflow.ui",1333891911647
stopped,bundle,org.springframework.ide.eclipse.webflow.ui.graph,2.8.1.201111220115-RELEASE,"org.springframework.ide.eclipse.webflow.ui.graph",1333891911647
stopped,bundle,org.springframework.ide.eclipse.webflow.ui.editor,2.8.1.201111220115-RELEASE,"org.springframework.ide.eclipse.webflow.ui.editor",1333891911647
stopped,bundle,org.springframework.ide.eclipse.webflow.core,2.8.1.201111220115-RELEASE,"org.springframework.ide.eclipse.webflow.core",1333891911647
stopped,bundle,org.springframework.ide.eclipse.beans.ui.editor,2.8.1.201111220115-RELEASE,"org.springframework.ide.eclipse.beans.ui.editor",1333891911647
stopped,bundle,org.springframework.ide.eclipse.beans.ui.graph,2.8.1.201111220115-RELEASE,"org.springframework.ide.eclipse.beans.ui.graph",1333891911648
stopped,bundle,org.springframework.ide.eclipse.beans.ui.search,2.8.1.201111220115-RELEASE,"org.springframework.ide.eclipse.beans.ui.search",1333891911648
stopped,bundle,org.springframework.ide.eclipse.beans.ui,2.8.1.201111220115-RELEASE,"org.springframework.ide.eclipse.beans.ui",1333891913030
stopped,bundle,org.springframework.ide.eclipse.beans.core.metadata,2.8.1.201111220115-RELEASE,"org.springframework.ide.eclipse.beans.core.metadata",1333891913031
stopped,bundle,org.springframework.ide.eclipse.beans.core,2.8.1.201111220115-RELEASE,"org.springframework.ide.eclipse.beans.core",1333891913101
stopped,bundle,com.springsource.sts.content.core,2.8.1.201111221000-RELEASE,"com.springsource.sts.content.core",1333891913101
stopped,bundle,com.springsource.sts.ui,2.8.1.201111221000-RELEASE,"com.springsource.sts.ui",1333891913102
stopped,bundle,com.springsource.sts.core,2.8.1.201111221000-RELEASE,"com.springsource.sts.core",1333891913102
stopped,bundle,com.springsource.sts.ide.osgi,2.8.1.201111221000-RELEASE,"com.springsource.sts.ide.osgi",1333891913102
stopped,bundle,org.springframework.ide.eclipse.ui,2.8.1.201111220115-RELEASE,"org.springframework.ide.eclipse.ui",1333891913102
stopped,bundle,org.springframework.ide.eclipse.core,2.8.1.201111220115-RELEASE,"org.springframework.ide.eclipse.core",1333891913103
stopped,bundle,org.eclipse.datatools.enablement.hsqldb.ui,1.0.0.v201108120600,"org.eclipse.datatools.enablement.hsqldb.ui",1333891913103
stopped,bundle,org.eclipse.datatools.enablement.ingres.ui,1.0.0.v201105270214,"org.eclipse.datatools.enablement.ingres.ui",1333891913103
stopped,bundle,org.eclipse.datatools.enablement.postgresql.ui,1.0.0.v200906020900,"org.eclipse.datatools.enablement.postgresql.ui",1333891913103
stopped,bundle,org.eclipse.datatools.enablement.sqlite.ui,1.0.0.v200906020900,"org.eclipse.datatools.enablement.sqlite.ui",1333891913103
stopped,bundle,org.eclipse.jpt.jpa.eclipselink.ui,2.0.1.v201108080010,"org.eclipse.jpt.jpa.eclipselink.ui",1333891913104
stopped,bundle,org.eclipse.jpt.jpa.ui,3.0.1.v201108080010,"org.eclipse.jpt.jpa.ui",1333891913104
stopped,bundle,org.eclipse.datatools.connectivity.db.generic.ui,1.0.1.v201004070709,"org.eclipse.datatools.connectivity.db.generic.ui",1333891913104
stopped,bundle,org.eclipse.birt.report.data.oda.jdbc.dbprofile.sampledb.ui,3.7.1.v20110905,"org.eclipse.birt.report.data.oda.jdbc.dbprofile.sampledb.ui",1333891913104
stopped,bundle,org.eclipse.datatools.connectivity.apache.derby.ui,1.0.3.v201007080903,"org.eclipse.datatools.connectivity.apache.derby.ui",1333891913105
stopped,bundle,org.eclipse.datatools.enablement.sybase.asa.schemaobjecteditor.examples,2.5.0.200810071,"org.eclipse.datatools.enablement.sybase.asa.schemaobjecteditor.examples",1333891913114
stopped,bundle,org.eclipse.datatools.enablement.sybase.asa.ui,1.0.1.v200906111150,"org.eclipse.datatools.enablement.sybase.asa.ui",1333891913114
stopped,bundle,org.eclipse.datatools.enablement.sybase.ase.ui,1.0.1.v200906020900,"org.eclipse.datatools.enablement.sybase.ase.ui",1333891913114
stopped,bundle,org.eclipse.datatools.enablement.sybase.ui,1.0.0.v200906090458,"org.eclipse.datatools.enablement.sybase.ui",1333891913115
stopped,bundle,org.eclipse.datatools.sqltools.data.ui,1.2.1.v201010270945,"org.eclipse.datatools.sqltools.data.ui",1333891913115
stopped,bundle,org.eclipse.datatools.connectivity.sqm.server.ui,1.1.100.v201009280455,"org.eclipse.datatools.connectivity.sqm.server.ui",1333891913115
stopped,bundle,org.eclipse.datatools.sqltools.ddlgen.ui,1.0.1.v201002270530,"org.eclipse.datatools.sqltools.ddlgen.ui",1333891913115
stopped,bundle,org.eclipse.datatools.sqltools.db.derby.ui,1.0.0.v200906020900,"org.eclipse.datatools.sqltools.db.derby.ui",1333891913115
stopped,bundle,org.eclipse.datatools.sqltools.db.generic.ui,1.0.0.v200906020900,"org.eclipse.datatools.sqltools.db.generic.ui",1333891913115
stopped,bundle,org.eclipse.datatools.sqltools.debugger.core.ui,1.0.0.v201003161000,"org.eclipse.datatools.sqltools.debugger.core.ui",1333891913115
stopped,bundle,org.eclipse.datatools.sqltools.routineeditor.ui,1.0.1.v201004060545,"org.eclipse.datatools.sqltools.routineeditor.ui",1333891913115
stopped,bundle,org.eclipse.birt.report.data.oda.jdbc.dbprofile.ui,3.7.1.v20110905,"org.eclipse.birt.report.data.oda.jdbc.dbprofile.ui",1333891913115
stopped,bundle,org.eclipse.datatools.sqltools.sqlbuilder,1.0.3.v201009131745,"org.eclipse.datatools.sqltools.sqlbuilder",1333891913115
stopped,bundle,org.eclipse.datatools.sqltools.debugger.core,1.0.1.v201005250945,"org.eclipse.datatools.sqltools.debugger.core",1333891913115
stopped,bundle,org.eclipse.datatools.sqltools.schemaobjecteditor.ui.pages,1.1.0.200810071,"org.eclipse.datatools.sqltools.schemaobjecteditor.ui.pages",1333891913115
stopped,bundle,org.eclipse.datatools.sqltools.schemaobjecteditor.ui,1.1.1.200810071,"org.eclipse.datatools.sqltools.schemaobjecteditor.ui",1333891913115
stopped,bundle,org.eclipse.datatools.sqltools.sqlscrapbook,1.0.1.v201005250945,"org.eclipse.datatools.sqltools.sqlscrapbook",1333891913115
stopped,bundle,org.eclipse.datatools.sqltools.sqleditor,1.0.2.v201009230800,"org.eclipse.datatools.sqltools.sqleditor",1333891913115
stopped,bundle,org.eclipse.datatools.sqltools.editor.core.ui,1.0.0.v201001150815,"org.eclipse.datatools.sqltools.editor.core.ui",1333891913115
stopped,bundle,org.eclipse.datatools.sqltools.tabledataeditor,1.0.1.v201005250945,"org.eclipse.datatools.sqltools.tabledataeditor",1333891913115
stopped,bundle,org.eclipse.datatools.connectivity.sqm.core.ui,1.2.0.v201002281800,"org.eclipse.datatools.connectivity.sqm.core.ui",1333891913115
stopped,bundle,org.eclipse.jst.j2ee.ejb.annotations.ui,1.1.200.v201004290730,"org.eclipse.jst.j2ee.ejb.annotations.ui",1333891913115
stopped,bundle,org.eclipse.datatools.connectivity.ui.dse,1.1.4.v201004270430,"org.eclipse.datatools.connectivity.ui.dse",1333891913115
stopped,bundle,org.eclipse.jst.j2ee.xdoclet.runtime,1.1.300.v201004280700,"org.eclipse.jst.j2ee.xdoclet.runtime",1333891913115
stopped,bundle,org.eclipse.jst.j2ee.ejb.annotations.xdoclet,1.2.200.v201103302125,"org.eclipse.jst.j2ee.ejb.annotations.xdoclet",1333891913115
stopped,bundle,org.eclipse.jst.jsf.apache.trinidad.tagsupport,1.1.200.v201104061711,"org.eclipse.jst.jsf.apache.trinidad.tagsupport",1333891913116
stopped,bundle,org.eclipse.jst.jsf.facesconfig.ui,1.2.2.v201103292152,"org.eclipse.jst.jsf.facesconfig.ui",1333891913116
stopped,bundle,org.eclipse.jst.jsf.facelet.ui,1.0.1.v201104032306,"org.eclipse.jst.jsf.facelet.ui",1333891913116
stopped,bundle,org.eclipse.jst.jsf.ui,1.3.2.v201104251204,"org.eclipse.jst.jsf.ui",1333891913116
stopped,bundle,org.eclipse.jst.pagedesigner.jsf.ui,1.2.100.v201104061711,"org.eclipse.jst.pagedesigner.jsf.ui",1333891913116
stopped,bundle,org.eclipse.jst.pagedesigner,1.3.103.v201109010833,"org.eclipse.jst.pagedesigner",1333891913116
stopped,bundle,org.eclipse.jst.jsf.common.ui,1.2.100.v201104061711,"org.eclipse.jst.jsf.common.ui",1333891913116
stopped,bundle,org.eclipse.pde.ua.ui,1.0.100.v20110516,"org.eclipse.pde.ua.ui",1333891913116
stopped,bundle,org.eclipse.datatools.connectivity.oda.template.ui,3.2.2.v201108260345,"org.eclipse.datatools.connectivity.oda.template.ui",1333891913116
stopped,bundle,org.eclipse.pde.api.tools.ui,1.0.301.v20110803_r371,"org.eclipse.pde.api.tools.ui",1333891913132
stopped,bundle,org.eclipse.pde.ds.ui,1.0.100.v20110516,"org.eclipse.pde.ds.ui",1333891913174
stopped,bundle,org.eclipse.ajdt.mylyn.ui,2.2.0.e37x-20111004-0800,"org.eclipse.ajdt.mylyn.ui",1333891913174
stopped,bundle,org.eclipse.ajdt.ui,2.2.0.e37x-20111004-0800,"org.eclipse.ajdt.ui",1333891913242
stopped,bundle,org.eclipse.pde.runtime,3.4.201.v20110819-0851,"org.eclipse.pde.runtime",1333891913242
stopped,bundle,org.eclipse.datatools.connectivity.ui.templates,1.0.0.v200906020553,"org.eclipse.datatools.connectivity.ui.templates",1333891913242
stopped,bundle,org.eclipse.datatools.sdk,1.7.0.v200906161850,"org.eclipse.datatools.sdk",1333891913242
stopped,bundle,org.eclipse.pde.ui.templates,3.4.400.v20110516,"org.eclipse.pde.ui.templates",1333891913242
stopped,bundle,org.eclipse.birt.chart.reportitem.ui,3.7.1.v20110905,"org.eclipse.birt.chart.reportitem.ui",1333891913297
stopped,bundle,org.eclipse.birt.report.item.crosstab.ui,3.7.1.v20110905,"org.eclipse.birt.report.item.crosstab.ui",1333891913297
stopped,bundle,org.eclipse.birt.report.designer.ui.ide,3.7.1.v20110905,"org.eclipse.birt.report.designer.ui.ide",1333891913297
stopped,bundle,org.eclipse.pde.ui,3.6.100.v20110603,"org.eclipse.pde.ui",1333891913367
stopped,bundle,org.eclipse.birt.report.designer.ui.editor.script,3.7.1.v20110905,"org.eclipse.birt.report.designer.ui.editor.script",1333891913367
stopped,bundle,org.eclipse.birt.report.designer.ui.editor.xml.wtp,3.7.1.v20110905,"org.eclipse.birt.report.designer.ui.editor.xml.wtp",1333891913367
stopped,bundle,org.eclipse.birt.report.designer.ui.lib.explorer,3.7.1.v20110905,"org.eclipse.birt.report.designer.ui.lib.explorer",1333891913367
stopped,bundle,org.eclipse.birt.report.designer.ui.lib,3.7.1.v20110905,"org.eclipse.birt.report.designer.ui.lib",1333891913367
stopped,bundle,org.eclipse.birt.report.designer.ui.editors.schematic,3.7.1.v20110905,"org.eclipse.birt.report.designer.ui.editors.schematic",1333891913367
stopped,bundle,org.eclipse.ui.cheatsheets,3.4.100.v20110425,"org.eclipse.ui.cheatsheets",1333891913411
stopped,bundle,org.eclipse.help.ui,3.5.101.r37_20110819,"org.eclipse.help.ui",1333891913411
stopped,bundle,org.eclipse.help.webapp,3.6.0.v20110518,"org.eclipse.help.webapp",1333891913411
stopped,bundle,org.eclipse.epp.mpc.ui,1.1.1.I20110907-0947,"org.eclipse.epp.mpc.ui",1333891913411
stopped,bundle,org.eclipse.epp.usagedata.ui,1.3.1.R201106061540,"org.eclipse.epp.usagedata.ui",1333891913411
stopped,bundle,org.eclipse.ui.intro.universal,3.2.500.v20110510,"org.eclipse.ui.intro.universal",1333891913411
stopped,bundle,org.eclipse.wtp.epp.package.jee.intro,1.3.0.v201006142040,"org.eclipse.wtp.epp.package.jee.intro",1333891913415
stopped,bundle,org.eclipse.ui.intro,3.4.100.v20110425,"org.eclipse.ui.intro",1333891913415
stopped,bundle,org.eclipse.help.base,3.6.1.v201109091335,"org.eclipse.help.base",1333891913415
stopped,bundle,org.eclipse.equinox.http.jetty,2.0.100.v20110502,"org.eclipse.equinox.http.jetty",1333891913415
stopped,bundle,org.eclipse.wst.server.preview,1.1.100.v20091208,"org.eclipse.wst.server.preview",1333891913415
stopped,bundle,org.eclipse.jst.ws.jaxws.ui,1.0.100.v201104032053,"org.eclipse.jst.ws.jaxws.ui",1333891913415
stopped,bundle,org.eclipse.jst.ws.jaxws.core,1.0.100.v201104031139,"org.eclipse.jst.ws.jaxws.core",1333891913415
stopped,bundle,org.eclipse.datatools.enablement.oda.ws.ui,1.2.2.v201105111200,"org.eclipse.datatools.enablement.oda.ws.ui",1333891913415
stopped,bundle,org.eclipse.datatools.enablement.oda.ws,1.2.2.v201106161731,"org.eclipse.datatools.enablement.oda.ws",1333891913415
stopped,bundle,org.eclipse.wst.wsdl,1.2.202.v201108230355,"org.eclipse.wst.wsdl",1333891913415
stopped,bundle,org.eclipse.wst.wsdl.validation,1.1.502.v201104071820,"org.eclipse.wst.wsdl.validation",1333891913415
stopped,bundle,org.eclipse.wst.xsl.exslt.ui,1.0.0.v201006012005,"org.eclipse.wst.xsl.exslt.ui",1333891913415
stopped,bundle,org.eclipse.wst.xsl.jaxp.debug.ui,1.0.200.v201103081922,"org.eclipse.wst.xsl.jaxp.debug.ui",1333891913415
stopped,bundle,org.eclipse.wst.xsl.ui,1.1.200.v201103082057,"org.eclipse.wst.xsl.ui",1333891913415
stopped,bundle,org.eclipse.wst.xml.xpath.ui,1.1.100.v201105030025,"org.eclipse.wst.xml.xpath.ui",1333891913415
stopped,bundle,org.eclipse.wst.xsl.debug.ui,1.0.200.v201101281837,"org.eclipse.wst.xsl.debug.ui",1333891913415
stopped,bundle,org.eclipse.wst.xsl.jaxp.launching,1.0.200.v201103081922,"org.eclipse.wst.xsl.jaxp.launching",1333891913415
stopped,bundle,org.eclipse.wst.xsl.launching,1.0.200.v201103081922,"org.eclipse.wst.xsl.launching",1333891913415
stopped,bundle,org.eclipse.wst.xsl.core,1.1.100.v201102270516,"org.eclipse.wst.xsl.core",1333891913415
stopped,bundle,org.eclipse.wst.xml.xpath.core,1.2.1.v201109010357,"org.eclipse.wst.xml.xpath.core",1333891913415
stopped,bundle,org.eclipse.birt.report.data.oda.xml.ui,3.7.1.v20110905,"org.eclipse.birt.report.data.oda.xml.ui",1333891913415
stopped,bundle,org.eclipse.datatools.enablement.oda.xml.ui,1.2.1.v201104211630,"org.eclipse.datatools.enablement.oda.xml.ui",1333891913415
stopped,bundle,org.eclipse.birt.report.data.oda.xml,3.7.1.v20110905,"org.eclipse.birt.report.data.oda.xml",1333891913415
stopped,bundle,org.eclipse.datatools.enablement.oda.xml,1.2.1.v201104121500,"org.eclipse.datatools.enablement.oda.xml",1333891913415
stopped,bundle,org.eclipse.jst.jsf.facelet.core,1.0.100.v201104191527,"org.eclipse.jst.jsf.facelet.core",1333891913415
stopped,bundle,org.eclipse.jst.jsf.core,1.3.105.v201108261005,"org.eclipse.jst.jsf.core",1333891913415
stopped,bundle,org.eclipse.jst.jsf.standard.tagsupport,1.2.100.v201104061711,"org.eclipse.jst.jsf.standard.tagsupport",1333891913415
stopped,bundle,org.eclipse.jst.pagedesigner.jsp.core,1.2.0.v20100308,"org.eclipse.jst.pagedesigner.jsp.core",1333891913415
stopped,bundle,org.eclipse.jst.jsf.common,1.2.3.v201104061039,"org.eclipse.jst.jsf.common",1333891913415
stopped,bundle,org.eclipse.wst.jsdt.web.support.jsp,1.0.400.v201102241833,"org.eclipse.wst.jsdt.web.support.jsp",1333891913415
stopped,bundle,org.eclipse.jst.jsp.ui,1.1.601.v201108151912,"org.eclipse.jst.jsp.ui",1333891913415
stopped,bundle,org.eclipse.jst.jsp.core,1.2.401.v201108302147,"org.eclipse.jst.jsp.core",1333891913415
